core_edge.vcd
$date
	Thu Nov 20 18:27:50 2025
$end
$version
	Icarus Verilog
$end
$timescale
	1ps
$end
$scope module tb_core_edgecases $end
$var wire 32 ! stat_slot_nop_count [31:0] $end
$var wire 32 " stat_slot_manual_count [31:0] $end
$var wire 32 # stat_slot_auto_count [31:0] $end
$var wire 32 $ stat_cycle_count [31:0] $end
$var wire 32 % stat_branch_count [31:0] $end
$var wire 1 & slot_event_is_nop $end
$var wire 1 ' slot_event_is_auto $end
$var wire 1 ( branch_event_valid $end
$var wire 1 ) branch_event_taken $end
$var wire 32 * branch_event_pc [31:0] $end
$var reg 1 + clk $end
$var reg 1 , reset $end
$scope module uut $end
$var wire 1 + clk $end
$var wire 1 , reset $end
$var wire 32 - stat_slot_nop_count [31:0] $end
$var wire 32 . stat_slot_manual_count [31:0] $end
$var wire 32 / stat_slot_auto_count [31:0] $end
$var wire 32 0 stat_cycle_count [31:0] $end
$var wire 32 1 stat_branch_count [31:0] $end
$var wire 1 & slot_event_is_nop $end
$var wire 1 ' slot_event_is_auto $end
$var wire 32 2 imem_rdata [31:0] $end
$var wire 32 3 imem_addr [31:0] $end
$var wire 1 4 dmem_we $end
$var wire 32 5 dmem_wdata [31:0] $end
$var wire 32 6 dmem_rdata [31:0] $end
$var wire 32 7 dmem_addr [31:0] $end
$var wire 1 ( branch_event_valid $end
$var wire 1 ) branch_event_taken $end
$var wire 32 8 branch_event_pc [31:0] $end
$scope module dmem $end
$var wire 1 + clk $end
$var wire 1 , reset $end
$var wire 1 4 we $end
$var wire 32 9 wdata [31:0] $end
$var wire 32 : addr [31:0] $end
$var parameter 32 ; DEPTH $end
$var reg 32 < rdata [31:0] $end
$var integer 32 = i [31:0] $end
$scope function read_word $end
$var reg 32 > addr_in [31:0] $end
$upscope $end
$scope task load_mem $end
$var reg 1024 ? filename [1023:0] $end
$upscope $end
$scope task write_word $end
$var reg 32 @ addr_in [31:0] $end
$var reg 32 A value [31:0] $end
$upscope $end
$upscope $end
$scope module imem $end
$var wire 32 B data [31:0] $end
$var wire 32 C addr [31:0] $end
$var parameter 32 D DEPTH $end
$scope task load_mem $end
$var reg 1024 E filename [1023:0] $end
$upscope $end
$scope task write_word $end
$var reg 32 F addr_in [31:0] $end
$var reg 32 G value [31:0] $end
$upscope $end
$upscope $end
$scope module u_cpu $end
$var wire 32 H branch_event_pc [31:0] $end
$var wire 1 ) branch_event_taken $end
$var wire 1 I branch_id_fire $end
$var wire 1 J branch_is_backward_id $end
$var wire 1 K branch_redirect $end
$var wire 1 + clk $end
$var wire 32 L dmem_rdata [31:0] $end
$var wire 1 M ex_mem_forward_rs $end
$var wire 1 N ex_mem_forward_rt $end
$var wire 1 O hazard_flush_id_ex $end
$var wire 1 P hazard_flush_if_id $end
$var wire 1 Q if_flush $end
$var wire 1 R if_stall $end
$var wire 32 S imem_rdata [31:0] $end
$var wire 1 T kill_cand1_signal $end
$var wire 1 U mem_wb_forward_rs $end
$var wire 1 V mem_wb_forward_rt $end
$var wire 1 , reset $end
$var wire 1 W scheduler_wait $end
$var wire 1 X slot_consumes_pc4 $end
$var wire 1 & slot_event_is_nop $end
$var wire 1 Y slot_inject_active $end
$var wire 1 Z slot_manual_is_nop_id $end
$var wire 1 [ wb_we $end
$var wire 32 \ wb_data [31:0] $end
$var wire 5 ] wb_addr [4:0] $end
$var wire 1 ^ wait_for_candidates $end
$var wire 2 _ slot_mode_id [1:0] $end
$var wire 32 ` slot_inject_pc_value [31:0] $end
$var wire 32 a slot_inject_pc_plus4_value [31:0] $end
$var wire 32 b slot_inject_instr [31:0] $end
$var wire 1 ' slot_event_is_auto $end
$var wire 1 c scheduler_kill_cand1_raw $end
$var wire 32 d rt_data [31:0] $end
$var wire 32 e rs_data [31:0] $end
$var wire 32 f predicted_branch_target [31:0] $end
$var wire 32 g mem_stage_data [31:0] $end
$var wire 32 h manual_slot_pc_id [31:0] $end
$var wire 1 i manual_slot_ok $end
$var wire 1 j manual_slot_is_nop $end
$var wire 32 k manual_slot_instr_id [31:0] $end
$var wire 32 l imem_addr [31:0] $end
$var wire 32 m if_pc_plus4 [31:0] $end
$var wire 32 n if_pc [31:0] $end
$var wire 32 o if_instr [31:0] $end
$var wire 5 p id_rt_addr [4:0] $end
$var wire 5 q id_rs_addr [4:0] $end
$var wire 1 r id_reg_write $end
$var wire 1 s id_reg_dst_rd $end
$var wire 5 t id_rd_addr [4:0] $end
$var wire 32 u id_pc_plus4_in [31:0] $end
$var wire 32 v id_pc_in [31:0] $end
$var wire 1 w id_mem_write $end
$var wire 1 x id_mem_to_reg $end
$var wire 1 y id_mem_read $end
$var wire 26 z id_jump_index [25:0] $end
$var wire 32 { id_instr_in [31:0] $end
$var wire 32 | id_imm_ext [31:0] $end
$var wire 2 } id_branch_type [1:0] $end
$var wire 1 ~ id_alu_src_immediate $end
$var wire 4 !" id_alu_op [3:0] $end
$var wire 1 "" hazard_stall_if $end
$var wire 1 #" hazard_stall_id $end
$var wire 1 $" force_nop_slot $end
$var wire 32 %" ex_stage_rt_val [31:0] $end
$var wire 32 &" ex_stage_rs_val [31:0] $end
$var wire 32 '" ex_rt_forward_value [31:0] $end
$var wire 5 (" ex_dest_reg [4:0] $end
$var wire 1 )" ex_branch_taken $end
$var wire 32 *" ex_alu_result [31:0] $end
$var wire 1 4 dmem_we $end
$var wire 32 +" dmem_wdata [31:0] $end
$var wire 32 ," dmem_addr [31:0] $end
$var wire 1 -" cand1_valid $end
$var wire 32 ." cand1_pc [31:0] $end
$var wire 32 /" cand1_instr [31:0] $end
$var wire 1 0" cand0_valid $end
$var wire 32 1" cand0_pc [31:0] $end
$var wire 32 2" cand0_instr [31:0] $end
$var wire 1 3" branch_valid_id $end
$var wire 32 4" branch_target [31:0] $end
$var wire 32 5" branch_offset_id [31:0] $end
$var wire 1 ( branch_event_valid $end
$var wire 1 6" auto_slot_use $end
$var wire 32 7" auto_slot_pc [31:0] $end
$var wire 32 8" auto_slot_instr [31:0] $end
$var parameter 2 9" BR_NONE $end
$var parameter 2 :" SLOT_MODE_AUTO $end
$var parameter 2 ;" SLOT_MODE_MANUAL $end
$var parameter 2 <" SLOT_MODE_NOP $end
$var reg 32 =" ex_mem_alu_result [31:0] $end
$var reg 5 >" ex_mem_dest_reg [4:0] $end
$var reg 1 ?" ex_mem_mem_read $end
$var reg 1 @" ex_mem_mem_to_reg $end
$var reg 1 A" ex_mem_mem_write $end
$var reg 1 B" ex_mem_reg_write $end
$var reg 32 C" ex_mem_rt_forward_value [31:0] $end
$var reg 4 D" id_ex_alu_op [3:0] $end
$var reg 1 E" id_ex_alu_src_immediate $end
$var reg 2 F" id_ex_branch_type [1:0] $end
$var reg 32 G" id_ex_imm_ext [31:0] $end
$var reg 26 H" id_ex_jump_index [25:0] $end
$var reg 1 I" id_ex_mem_read $end
$var reg 1 J" id_ex_mem_to_reg $end
$var reg 1 K" id_ex_mem_write $end
$var reg 32 L" id_ex_pc [31:0] $end
$var reg 32 M" id_ex_pc_plus4 [31:0] $end
$var reg 5 N" id_ex_rd_addr [4:0] $end
$var reg 1 O" id_ex_reg_dst_rd $end
$var reg 1 P" id_ex_reg_write $end
$var reg 5 Q" id_ex_rs_addr [4:0] $end
$var reg 32 R" id_ex_rs_val [31:0] $end
$var reg 5 S" id_ex_rt_addr [4:0] $end
$var reg 32 T" id_ex_rt_val [31:0] $end
$var reg 32 U" id_ex_slot_auto_instr [31:0] $end
$var reg 32 V" id_ex_slot_auto_pc [31:0] $end
$var reg 32 W" id_ex_slot_manual_instr [31:0] $end
$var reg 1 X" id_ex_slot_manual_is_nop $end
$var reg 32 Y" id_ex_slot_manual_pc [31:0] $end
$var reg 2 Z" id_ex_slot_mode [1:0] $end
$var reg 32 [" mem_wb_alu_result [31:0] $end
$var reg 32 \" mem_wb_data [31:0] $end
$var reg 5 ]" mem_wb_dest_reg [4:0] $end
$var reg 1 ^" mem_wb_mem_to_reg $end
$var reg 1 _" mem_wb_reg_write $end
$var reg 32 `" slot_auto_instr_ex [31:0] $end
$var reg 32 a" slot_auto_pc_ex [31:0] $end
$var reg 1 b" slot_cycle_pending $end
$var reg 32 c" slot_manual_instr_ex [31:0] $end
$var reg 1 d" slot_manual_is_nop_ex $end
$var reg 32 e" slot_manual_pc_ex [31:0] $end
$var reg 2 f" slot_mode_ex [1:0] $end
$var reg 32 g" slot_nominal_pc_ex [31:0] $end
$var reg 32 h" stat_branch_count [31:0] $end
$var reg 32 i" stat_cycle_count [31:0] $end
$var reg 32 j" stat_slot_auto_count [31:0] $end
$var reg 32 k" stat_slot_manual_count [31:0] $end
$var reg 32 l" stat_slot_nop_count [31:0] $end
$scope module u_ex_stage $end
$var wire 4 m" alu_op [3:0] $end
$var wire 1 E" alu_src_immediate $end
$var wire 2 n" branch_type [1:0] $end
$var wire 1 + clk $end
$var wire 32 o" id_pc_plus4 [31:0] $end
$var wire 32 p" imm_ext [31:0] $end
$var wire 26 q" jump_index [25:0] $end
$var wire 5 r" rd_addr [4:0] $end
$var wire 1 O" reg_dst_rd $end
$var wire 1 , reset $end
$var wire 5 s" rs_addr [4:0] $end
$var wire 32 t" rs_val [31:0] $end
$var wire 5 u" rt_addr [4:0] $end
$var wire 32 v" rt_forward_value [31:0] $end
$var wire 32 w" rt_val [31:0] $end
$var wire 5 x" dest_reg_out [4:0] $end
$var wire 32 y" branch_target [31:0] $end
$var wire 1 )" branch_taken $end
$var wire 32 z" branch_offset [31:0] $end
$var wire 32 {" alu_result [31:0] $end
$var wire 32 |" alu_operand_b [31:0] $end
$scope module u_alu $end
$var wire 4 }" alu_op [3:0] $end
$var wire 32 ~" op_a [31:0] $end
$var wire 32 !# op_b [31:0] $end
$var wire 1 "# zero $end
$var parameter 4 ## ALU_ADD $end
$var parameter 4 $# ALU_AND $end
$var parameter 4 %# ALU_OR $end
$var parameter 4 &# ALU_PASS $end
$var parameter 4 '# ALU_SUB $end
$var reg 32 (# result [31:0] $end
$upscope $end
$scope module u_branch_unit $end
$var wire 1 )# beq_taken $end
$var wire 1 *# bne_taken $end
$var wire 32 +# branch_offset [31:0] $end
$var wire 1 )" branch_taken $end
$var wire 2 ,# branch_type [1:0] $end
$var wire 26 -# jump_index [25:0] $end
$var wire 32 .# pc_plus4_ex [31:0] $end
$var wire 32 /# rs_val [31:0] $end
$var wire 32 0# rt_val [31:0] $end
$var wire 1 1# j_taken $end
$var parameter 2 2# BR_BEQ $end
$var parameter 2 3# BR_BNE $end
$var parameter 2 4# BR_J $end
$var parameter 2 5# BR_NONE $end
$var reg 32 6# branch_target [31:0] $end
$upscope $end
$upscope $end
$scope module u_hazard_unit $end
$var wire 1 I" ex_mem_read $end
$var wire 5 7# ex_rt [4:0] $end
$var wire 1 O flush_id_ex $end
$var wire 1 P flush_if_id $end
$var wire 1 8# load_use_hazard $end
$var wire 1 #" stall_id $end
$var wire 1 "" stall_if $end
$var wire 5 9# id_rt [4:0] $end
$var wire 5 :# id_rs [4:0] $end
$upscope $end
$scope module u_id_stage $end
$var wire 32 ;# if_instr [31:0] $end
$var wire 32 <# if_pc_plus4 [31:0] $end
$var wire 32 =# zero_ext [31:0] $end
$var wire 32 ># sign_ext [31:0] $end
$var wire 5 ?# rt_addr [4:0] $end
$var wire 5 @# rs_addr [4:0] $end
$var wire 5 A# rd_addr [4:0] $end
$var wire 6 B# opcode [5:0] $end
$var wire 16 C# imm [15:0] $end
$var wire 1 D# id_is_branch_or_jump $end
$var wire 6 E# funct [5:0] $end
$var parameter 2 F# BR_BEQ $end
$var parameter 2 G# BR_BNE $end
$var parameter 2 H# BR_J $end
$var parameter 2 I# BR_NONE $end
$var reg 4 J# alu_op [3:0] $end
$var reg 1 ~ alu_src_immediate $end
$var reg 2 K# branch_type [1:0] $end
$var reg 32 L# imm_ext [31:0] $end
$var reg 26 M# jump_index [25:0] $end
$var reg 1 y mem_read $end
$var reg 1 x mem_to_reg $end
$var reg 1 w mem_write $end
$var reg 1 s reg_dst_rd $end
$var reg 1 r reg_write $end
$upscope $end
$scope module u_if_stage $end
$var wire 1 K branch_redirect $end
$var wire 32 N# branch_target [31:0] $end
$var wire 32 O# cand1_instr [31:0] $end
$var wire 1 -" cand1_valid $end
$var wire 1 + clk $end
$var wire 1 Q flush $end
$var wire 32 P# imem_data [31:0] $end
$var wire 1 T kill_cand1 $end
$var wire 1 , reset $end
$var wire 1 R stall $end
$var wire 32 Q# cand1_pc [31:0] $end
$var wire 1 0" cand0_valid $end
$var wire 32 R# cand0_pc [31:0] $end
$var wire 32 S# cand0_instr [31:0] $end
$var reg 32 T# fetch_pc [31:0] $end
$var reg 32 U# fetch_pc_n [31:0] $end
$var reg 32 V# if_instr [31:0] $end
$var reg 32 W# if_instr_n [31:0] $end
$var reg 32 X# if_pc [31:0] $end
$var reg 32 Y# if_pc_n [31:0] $end
$var reg 32 Z# if_pc_plus4 [31:0] $end
$var reg 32 [# if_pc_plus4_n [31:0] $end
$var reg 32 \# imem_addr [31:0] $end
$var reg 32 ]# slot0_instr [31:0] $end
$var reg 32 ^# slot0_instr_n [31:0] $end
$var reg 32 _# slot0_pc [31:0] $end
$var reg 32 `# slot0_pc_n [31:0] $end
$var reg 1 0" slot0_valid $end
$var reg 1 a# slot0_valid_n $end
$var reg 32 b# slot1_instr [31:0] $end
$var reg 32 c# slot1_instr_n [31:0] $end
$var reg 32 d# slot1_pc [31:0] $end
$var reg 32 e# slot1_pc_n [31:0] $end
$var reg 1 f# slot1_valid $end
$var reg 1 g# slot1_valid_n $end
$upscope $end
$scope module u_mem_stage $end
$var wire 32 h# alu_result [31:0] $end
$var wire 32 i# dmem_addr [31:0] $end
$var wire 32 j# dmem_rdata [31:0] $end
$var wire 32 k# dmem_wdata [31:0] $end
$var wire 1 4 dmem_we $end
$var wire 32 l# mem_data_out [31:0] $end
$var wire 1 ?" mem_read $end
$var wire 1 A" mem_write $end
$var wire 32 m# rt_forward_value [31:0] $end
$upscope $end
$scope module u_reg_file $end
$var wire 1 + clk $end
$var wire 1 , reset $end
$var wire 5 n# rs_addr [4:0] $end
$var wire 5 o# rt_addr [4:0] $end
$var wire 32 p# rt_data [31:0] $end
$var wire 32 q# rs_data [31:0] $end
$var wire 1 [ rd_we $end
$var wire 32 r# rd_data [31:0] $end
$var wire 5 s# rd_addr [4:0] $end
$var integer 32 t# i [31:0] $end
$upscope $end
$scope module u_slot_scheduler $end
$var wire 1 J branch_is_backward $end
$var wire 32 u# branch_pc [31:0] $end
$var wire 5 v# branch_rs [4:0] $end
$var wire 5 w# branch_rt [4:0] $end
$var wire 1 3" branch_valid $end
$var wire 1 x# branch_window_ok $end
$var wire 32 y# cand0_instr [31:0] $end
$var wire 32 z# cand0_pc [31:0] $end
$var wire 1 0" cand0_valid $end
$var wire 32 {# cand1_instr [31:0] $end
$var wire 32 |# cand1_pc [31:0] $end
$var wire 1 -" cand1_valid $end
$var reg 32 }# auto_slot_instr [31:0] $end
$var reg 32 ~# auto_slot_pc [31:0] $end
$var reg 1 6" auto_slot_use $end
$var reg 1 $" force_nop_slot $end
$var reg 1 c kill_cand1 $end
$var reg 1 j manual_slot_is_nop $end
$var reg 1 i manual_slot_ok $end
$var reg 1 ^ wait_for_more_candidates $end
$scope function get_dest_reg $end
$upscope $end
$scope function get_funct $end
$upscope $end
$scope function get_opcode $end
$upscope $end
$scope function get_rd $end
$upscope $end
$scope function get_rs $end
$upscope $end
$scope function get_rt $end
$upscope $end
$scope function is_control $end
$upscope $end
$scope function is_memory_op $end
$upscope $end
$scope function safe_candidate $end
$upscope $end
$scope function writes_register $end
$upscope $end
$upscope $end
$scope module u_wb_stage $end
$var wire 32 !$ alu_result [31:0] $end
$var wire 5 "$ dest_reg [4:0] $end
$var wire 32 #$ mem_data [31:0] $end
$var wire 1 ^" mem_to_reg $end
$var wire 1 _" reg_write $end
$var wire 5 $$ wb_addr [4:0] $end
$var wire 1 [ wb_we $end
$var wire 32 %$ wb_data [31:0] $end
$upscope $end
$upscope $end
$upscope $end
$scope task load_program_edgecases $end
$upscope $end
$upscope $end
$enddefinitions $end
$comment Show the parameter values. $end
$dumpall
b0 I#
b11 H#
b10 G#
b1 F#
b0 5#
b11 4#
b10 3#
b1 2#
b1 '#
b100 &#
b11 %#
b10 $#
b0 ##
b10 <"
b0 ;"
b1 :"
b0 9"
b100000000 D
b100000000 ;
$end
#0
$dumpvars
bx %$
bx $$
bx #$
bx "$
bx !$
bx ~#
bx }#
bx |#
bx {#
bx z#
bx y#
xx#
bx w#
bx v#
bx u#
bx t#
bx s#
bx r#
bx q#
bx p#
bx o#
bx n#
bx m#
bx l#
bx k#
bx j#
bx i#
bx h#
xg#
xf#
bx e#
bx d#
bx c#
bx b#
xa#
bx `#
bx _#
bx ^#
bx ]#
bx \#
bx [#
bx Z#
bx Y#
bx X#
bx W#
bx V#
bx U#
bx T#
bx S#
bx R#
bx Q#
bx P#
bx O#
bx N#
bx M#
bx L#
bx K#
bx J#
bx E#
xD#
bx C#
bx B#
bx A#
bx @#
bx ?#
bx >#
b0xxxxxxxxxxxxxxxx =#
bx <#
bx ;#
bx :#
bx 9#
x8#
bx 7#
bx 6#
x1#
bx 0#
bx /#
bx .#
bx -#
bx ,#
bx00 +#
x*#
x)#
bx (#
x"#
bx !#
bx ~"
bx }"
bx |"
bx {"
bx00 z"
bx y"
bx x"
bx w"
bx v"
bx u"
bx t"
bx s"
bx r"
bx q"
bx p"
bx o"
bx n"
bx m"
bx l"
bx k"
bx j"
bx i"
bx h"
bx g"
bx f"
bx e"
xd"
bx c"
xb"
bx a"
bx `"
x_"
x^"
bx ]"
bx \"
bx ["
bx Z"
bx Y"
xX"
bx W"
bx V"
bx U"
bx T"
bx S"
bx R"
bx Q"
xP"
xO"
bx N"
bx M"
bx L"
xK"
xJ"
xI"
bx H"
bx G"
bx F"
xE"
bx D"
bx C"
xB"
xA"
x@"
x?"
bx >"
bx ="
bx 8"
bx 7"
x6"
bx00 5"
bx 4"
x3"
bx 2"
bx 1"
x0"
bx /"
bx ."
x-"
bx ,"
bx +"
bx *"
x)"
bx ("
bx '"
bx &"
bx %"
x$"
x#"
x""
bx !"
x~
bx }
bx |
bx {
bx z
xy
xx
xw
bx v
bx u
bx t
xs
xr
bx q
bx p
bx o
bx n
bx m
bx l
bx k
xj
xi
bx h
bx g
bx f
bx e
bx d
xc
bx b
bx a
bx `
bx _
x^
bx ]
bx \
x[
xZ
xY
xX
xW
xV
xU
xT
bx S
xR
xQ
0P
0O
xN
xM
bx L
xK
xJ
xI
bx H
b100000000000000000000000000000 G
b1000000 F
bx E
bx C
bx B
bx A
bx @
bx ?
bx >
bx =
bx <
bx :
bx 9
bx 8
bx 7
bx 6
bx 5
x4
bx 3
bx 2
bx 1
bx 0
bx /
bx .
bx -
1,
0+
bx *
x)
x(
x'
x&
bx %
bx $
bx #
bx "
bx !
$end
#5000
0I
b0 f
1x#
1"#
b0 *"
b0 {"
b0 (#
b0 5"
b0 _
0J
b0 e
b0 q#
b0 d
b0 p#
0)
0K
0)"
b0 |"
b0 !#
0R
b0 z
b0 M#
b0 |
b0 L#
0D#
03"
b0 }
b0 K#
0x
0w
0y
0r
1s
0~
b0 !"
b0 J#
b0 B#
b0 E#
b0 q
b0 :#
b0 @#
b0 n#
b0 v#
b0 p
b0 9#
b0 ?#
b0 o#
b0 w#
b0 t
b0 A#
b0 >#
b0 =#
b0 C#
b0 h
0T
0W
0Z
b100000000000010000000000000000 2
b100000000000010000000000000000 B
b100000000000010000000000000000 S
b100000000000010000000000000000 P#
b0 '"
b0 v"
b0 %"
b0 w"
b0 0#
b0 &"
b0 t"
b0 ~"
b0 /#
0Q
b0 {
b0 ;#
b0 u
b0 <#
b0 v
b0 u#
b0 k
0c
b0 7"
b0 ~#
b0 8"
b0 }#
0^
0$"
06"
0j
0i
b0 3
b0 C
b0 l
b0 \#
b0 W#
b0 [#
b0 Y#
b100 U#
0g#
b0 e#
b0 c#
1a#
b0 `#
b100000000000010000000000000000 ^#
0N
0V
0M
0U
0)#
0*#
0""
0#"
08#
b0 ("
b0 x"
b0 z"
b0 +#
b100 4"
b100 y"
b100 6#
b100 N#
0Y
b0 b
b100 a
b0 `
0X
0&
b0 \
b0 r#
b0 %$
b0 g
b0 l#
b0 6
b0 <
b0 L
b0 j#
b0 o
b0 V#
b0 m
b0 Z#
b0 n
b0 X#
0-"
0f#
b0 ."
b0 Q#
b0 d#
b0 |#
b0 /"
b0 O#
b0 {#
b0 b#
00"
b0 1"
b0 R#
b0 _#
b0 z#
b0 2"
b0 S#
b0 ]#
b0 y#
b0 T#
b0 Y"
b0 W"
0X"
b0 V"
b0 U"
b0 Z"
b0 N"
b0 r"
b0 S"
b0 u"
b0 7#
b0 Q"
b0 s"
0(
01#
b0 F"
b0 n"
b0 ,#
0J"
0K"
0I"
0P"
0O"
0E"
b0 D"
b0 m"
b0 }"
b0 H"
b0 q"
b0 -#
b0 G"
b0 p"
b0 T"
b0 R"
b0 M"
b0 o"
b0 .#
b0 *
b0 8
b0 H
b0 L"
0b"
0d"
b0 e"
b0 c"
b0 g"
b0 a"
b0 `"
0'
b0 f"
0@"
04
0A"
0?"
0B"
b0 >"
b0 5
b0 9
b0 +"
b0 k#
b0 C"
b0 m#
b0 7
b0 :
b0 ,"
b0 i#
b0 ="
b0 h#
0^"
0[
0_"
b0 ]
b0 s#
b0 $$
b0 ]"
b0 "$
b0 \"
b0 #$
b0 ["
b0 !$
b0 !
b0 -
b0 l"
b0 #
b0 /
b0 j"
b0 "
b0 .
b0 k"
b0 %
b0 1
b0 h"
b0 $
b0 0
b0 i"
b100000000 =
b100000 t#
1+
#10000
0+
#15000
b100000 t#
b100000000 =
1+
#20000
0+
#25000
b100000000 =
b100000 t#
1+
#30000
0+
#35000
b100000 t#
b100000000 =
1+
#40000
0+
#45000
0,
b100000000 =
b100000 t#
1+
#50000
0+
#55000
b100000000000100000000000000001 2
b100000000000100000000000000001 B
b100000000000100000000000000001 S
b100000000000100000000000000001 P#
b100000000000010000000000000000 k
b100 3
b100 C
b100 l
b100 \#
b1000 U#
b100 `#
1a#
b100000000000100000000000000001 ^#
b100 [#
b100000000000010000000000000000 W#
b1 $
b1 0
b1 i"
1O"
10"
b100000000000010000000000000000 2"
b100000000000010000000000000000 S#
b100000000000010000000000000000 ]#
b100000000000010000000000000000 y#
b100 T#
1+
#60000
0+
#65000
1r
1~
b10000000000000000 z
b10000000000000000 M#
0s
b1000 B#
b1 p
b1 9#
b1 ?#
b1 o#
b1 w#
b100000000110000000000000000000 2
b100000000110000000000000000000 B
b100000000110000000000000000000 S
b100000000110000000000000000000 P#
b100000000000010000000000000000 {
b100000000000010000000000000000 ;#
b100 f
b100 u
b100 <#
b100 h
b100000000000100000000000000001 k
b1000 3
b1000 C
b1000 l
b1000 \#
b1100 U#
1a#
b1000 `#
b100000000110000000000000000000 ^#
b1000 [#
b100 Y#
b100000000000100000000000000001 W#
b100000000000010000000000000000 o
b100000000000010000000000000000 V#
b100 m
b100 Z#
b100 1"
b100 R#
b100 _#
b100 z#
b100000000000100000000000000001 2"
b100000000000100000000000000001 S#
b100000000000100000000000000001 ]#
b100000000000100000000000000001 y#
b1000 T#
b100000000000010000000000000000 W"
b10 $
b10 0
b10 i"
1+
#70000
0+
#75000
b100 5"
b100000000000000001 z
b100000000000000001 M#
b1 |
b1 L#
1r
1~
b1 E#
b10 p
b10 9#
b10 ?#
b10 o#
b10 w#
b1 >#
b1 =#
b1 C#
b10100001000010000000000000010 2
b10100001000010000000000000010 B
b10100001000010000000000000010 S
b10100001000010000000000000010 P#
b1 ("
b1 x"
b1000 4"
b1000 y"
b1000 6#
b1000 N#
b100000000000100000000000000001 {
b100000000000100000000000000001 ;#
b1100 f
b1000 u
b1000 <#
b100 v
b100 u#
b1000 h
b100000000110000000000000000000 k
b1100 3
b1100 C
b1100 l
b1100 \#
b10000 U#
1a#
b1100 `#
b10100001000010000000000000010 ^#
b1100 [#
b1000 Y#
b100000000110000000000000000000 W#
b11 $
b11 0
b11 i"
b100 Y"
b100000000000100000000000000001 W"
b1 S"
b1 u"
b1 7#
1P"
0O"
1E"
b10000000000000000 H"
b10000000000000000 q"
b10000000000000000 -#
b100 M"
b100 o"
b100 .#
b100000000000100000000000000001 o
b100000000000100000000000000001 V#
b1000 m
b1000 Z#
b100 n
b100 X#
b1000 1"
b1000 R#
b1000 _#
b1000 z#
b100000000110000000000000000000 2"
b100000000110000000000000000000 S#
b100000000110000000000000000000 ]#
b100000000110000000000000000000 y#
b1100 T#
1+
#80000
0+
#85000
b0 5"
b110000000000000000000 z
b110000000000000000000 M#
b0 |
b0 L#
1r
1~
b0 E#
b11000 p
b11000 9#
b11000 ?#
b11000 o#
b11000 w#
b0 >#
b0 =#
b0 C#
b10001100000001010000000000000000 2
b10001100000001010000000000000000 B
b10001100000001010000000000000000 S
b10001100000001010000000000000000 P#
0"#
b1 *"
b1 {"
b1 (#
b100000000110000000000000000000 {
b100000000110000000000000000000 ;#
b1100 f
b1100 u
b1100 <#
b1000 v
b1000 u#
b1100 h
b10100001000010000000000000010 k
b10000 3
b10000 C
b10000 l
b10000 \#
b10100 U#
1a#
b10000 `#
b10001100000001010000000000000000 ^#
b10000 [#
b1100 Y#
b10100001000010000000000000010 W#
b10 ("
b10 x"
b1 |"
b1 !#
b100 z"
b100 +#
b1100 4"
b1100 y"
b1100 6#
b1100 N#
b100000000110000000000000000000 o
b100000000110000000000000000000 V#
b1100 m
b1100 Z#
b1000 n
b1000 X#
b1100 1"
b1100 R#
b1100 _#
b1100 z#
b10100001000010000000000000010 2"
b10100001000010000000000000010 S#
b10100001000010000000000000010 ]#
b10100001000010000000000000010 y#
b10000 T#
b1000 Y"
b100000000110000000000000000000 W"
b10 S"
b10 u"
b10 7#
b100000000000000001 H"
b100000000000000001 q"
b100000000000000001 -#
b1 G"
b1 p"
b1000 M"
b1000 o"
b1000 .#
b100 *
b100 8
b100 H
b100 L"
1B"
b1 >"
b100 $
b100 0
b100 i"
1+
#90000
0+
#95000
1g#
b10100 e#
b100011000110000000000000001001 c#
1R
1W
b1000 5"
1^
1"#
b0 *"
b0 {"
b0 (#
1D#
13"
b10 }
b10 K#
b1 !"
b1 J#
b1000010000000000000010 z
b1000010000000000000010 M#
b10 |
b10 L#
0r
0~
b101 B#
b10 E#
b1 q
b1 :#
b1 @#
b1 n#
b1 v#
b1 p
b1 9#
b1 ?#
b1 o#
b1 w#
b10 >#
b10 =#
b10 C#
b100011000110000000000000001001 2
b100011000110000000000000001001 B
b100011000110000000000000001001 S
b100011000110000000000000001001 P#
b11000 ("
b11000 x"
b0 |"
b0 !#
b0 z"
b0 +#
b10000 4"
b10000 y"
b10000 6#
b10000 N#
b10100001000010000000000000010 {
b10100001000010000000000000010 ;#
b11000 f
b10000 u
b10000 <#
b1100 v
b1100 u#
b10000 h
b10001100000001010000000000000000 k
b10100 3
b10100 C
b10100 l
b10100 \#
b11000 U#
1a#
b10000 `#
b10001100000001010000000000000000 ^#
b10000 [#
b1100 Y#
b10100001000010000000000000010 W#
b101 $
b101 0
b101 i"
1[
1_"
b1 ]
b1 s#
b1 $$
b1 ]"
b1 "$
b10 >"
b1 7
b1 :
b1 ,"
b1 i#
b1 ="
b1 h#
b1100 Y"
b10100001000010000000000000010 W"
b11000 S"
b11000 u"
b11000 7#
b110000000000000000000 H"
b110000000000000000000 q"
b110000000000000000000 -#
b0 G"
b0 p"
b1100 M"
b1100 o"
b1100 .#
b1000 *
b1000 8
b1000 H
b1000 L"
b10100001000010000000000000010 o
b10100001000010000000000000010 V#
b10000 m
b10000 Z#
b1100 n
b1100 X#
b10000 1"
b10000 R#
b10000 _#
b10000 z#
b10001100000001010000000000000000 2"
b10001100000001010000000000000000 S#
b10001100000001010000000000000000 ]#
b10001100000001010000000000000000 y#
b10100 T#
1+
#100000
0+
#105000
b1 _
b11100 U#
1a#
b11000 `#
b100011001110010000000000000001 ^#
b10100 [#
b10000 Y#
b10001100000001010000000000000000 W#
0g#
1T
0R
1I
0W
b100011001110010000000000000001 2
b100011001110010000000000000001 B
b100011001110010000000000000001 S
b100011001110010000000000000001 P#
1c
b10100 7"
b10100 ~#
b100011000110000000000000001001 8"
b100011000110000000000000001001 }#
16"
0^
b11000 3
b11000 C
b11000 l
b11000 \#
1N
b1 \
b1 r#
b1 %$
1-"
1f#
b10100 ."
b10100 Q#
b10100 d#
b10100 |#
b100011000110000000000000001001 /"
b100011000110000000000000001001 O#
b100011000110000000000000001001 {#
b100011000110000000000000001001 b#
b11000 T#
b11000 >"
b0 7
b0 :
b0 ,"
b0 i#
b0 ="
b0 h#
b10 ]
b10 s#
b10 $$
b10 ]"
b10 "$
b1 ["
b1 !$
b110 $
b110 0
b110 i"
1+
#110000
0+
