core_basic.vcd
$date
	Fri Nov 21 13:26:23 2025
$end
$version
	Icarus Verilog
$end
$timescale
	1ps
$end
$scope module tb_core_basic $end
$scope module uut $end
$var wire 1 ! clk $end
$var wire 1 " reset $end
$var wire 32 # stat_slot_nop_count [31:0] $end
$var wire 32 $ stat_slot_manual_count [31:0] $end
$var wire 32 % stat_slot_auto_count [31:0] $end
$var wire 32 & stat_cycle_count [31:0] $end
$var wire 32 ' stat_branch_count [31:0] $end
$var wire 1 ( slot_event_is_nop $end
$var wire 1 ) slot_event_is_auto $end
$var wire 32 * imem_rdata [31:0] $end
$var wire 32 + imem_addr [31:0] $end
$var wire 1 , dmem_we $end
$var wire 32 - dmem_wdata [31:0] $end
$var wire 32 . dmem_rdata [31:0] $end
$var wire 32 / dmem_addr [31:0] $end
$var wire 1 0 branch_event_valid $end
$var wire 1 1 branch_event_taken $end
$var wire 32 2 branch_event_pc [31:0] $end
$scope module dmem $end
$var wire 1 ! clk $end
$var wire 1 " reset $end
$var wire 1 , we $end
$var wire 32 3 wdata [31:0] $end
$var wire 32 4 addr [31:0] $end
$var parameter 32 5 DEPTH $end
$var reg 32 6 rdata [31:0] $end
$var integer 32 7 i [31:0] $end
$scope function read_word $end
$var reg 32 8 addr_in [31:0] $end
$upscope $end
$scope task load_mem $end
$var reg 1024 9 filename [1023:0] $end
$upscope $end
$scope task write_word $end
$var reg 32 : addr_in [31:0] $end
$var reg 32 ; value [31:0] $end
$upscope $end
$upscope $end
$scope module imem $end
$var wire 32 < data [31:0] $end
$var wire 32 = addr [31:0] $end
$var parameter 32 > DEPTH $end
$scope task load_mem $end
$var reg 1024 ? filename [1023:0] $end
$upscope $end
$scope task write_word $end
$var reg 32 @ addr_in [31:0] $end
$var reg 32 A value [31:0] $end
$upscope $end
$upscope $end
$scope module u_cpu $end
$var wire 32 B branch_event_pc [31:0] $end
$var wire 1 1 branch_event_taken $end
$var wire 1 C branch_id_fire $end
$var wire 1 D branch_is_backward_id $end
$var wire 1 E branch_redirect $end
$var wire 1 ! clk $end
$var wire 32 F dmem_rdata [31:0] $end
$var wire 1 G ex_mem_forward_rs $end
$var wire 1 H ex_mem_forward_rt $end
$var wire 1 I hazard_flush_id_ex $end
$var wire 1 J hazard_flush_if_id $end
$var wire 1 K if_flush $end
$var wire 1 L if_stall $end
$var wire 32 M imem_rdata [31:0] $end
$var wire 1 N kill_cand1_signal $end
$var wire 1 O mem_wb_forward_rs $end
$var wire 1 P mem_wb_forward_rt $end
$var wire 1 " reset $end
$var wire 1 Q scheduler_wait $end
$var wire 1 R slot_consumes_pc4 $end
$var wire 1 ( slot_event_is_nop $end
$var wire 1 S slot_inject_active $end
$var wire 1 T slot_manual_is_nop_id $end
$var wire 1 U wb_we $end
$var wire 32 V wb_data [31:0] $end
$var wire 5 W wb_addr [4:0] $end
$var wire 1 X wait_for_candidates $end
$var wire 2 Y slot_mode_id [1:0] $end
$var wire 32 Z slot_inject_pc_value [31:0] $end
$var wire 32 [ slot_inject_pc_plus4_value [31:0] $end
$var wire 32 \ slot_inject_instr [31:0] $end
$var wire 1 ) slot_event_is_auto $end
$var wire 1 ] scheduler_kill_cand1_raw $end
$var wire 32 ^ rt_data [31:0] $end
$var wire 32 _ rs_data [31:0] $end
$var wire 32 ` predicted_branch_target [31:0] $end
$var wire 32 a mem_stage_data [31:0] $end
$var wire 32 b manual_slot_pc_id [31:0] $end
$var wire 1 c manual_slot_ok $end
$var wire 1 d manual_slot_is_nop $end
$var wire 32 e manual_slot_instr_id [31:0] $end
$var wire 32 f imem_addr [31:0] $end
$var wire 32 g if_pc_plus4 [31:0] $end
$var wire 32 h if_pc [31:0] $end
$var wire 32 i if_instr [31:0] $end
$var wire 5 j id_rt_addr [4:0] $end
$var wire 5 k id_rs_addr [4:0] $end
$var wire 1 l id_reg_write $end
$var wire 1 m id_reg_dst_rd $end
$var wire 5 n id_rd_addr [4:0] $end
$var wire 32 o id_pc_plus4_in [31:0] $end
$var wire 32 p id_pc_in [31:0] $end
$var wire 1 q id_mem_write $end
$var wire 1 r id_mem_to_reg $end
$var wire 1 s id_mem_read $end
$var wire 26 t id_jump_index [25:0] $end
$var wire 32 u id_instr_in [31:0] $end
$var wire 32 v id_imm_ext [31:0] $end
$var wire 2 w id_branch_type [1:0] $end
$var wire 1 x id_alu_src_immediate $end
$var wire 4 y id_alu_op [3:0] $end
$var wire 1 z hazard_stall_if $end
$var wire 1 { hazard_stall_id $end
$var wire 1 | force_nop_slot $end
$var wire 32 } ex_stage_rt_val [31:0] $end
$var wire 32 ~ ex_stage_rs_val [31:0] $end
$var wire 32 !" ex_rt_forward_value [31:0] $end
$var wire 5 "" ex_dest_reg [4:0] $end
$var wire 1 #" ex_branch_taken $end
$var wire 32 $" ex_alu_result [31:0] $end
$var wire 1 , dmem_we $end
$var wire 32 %" dmem_wdata [31:0] $end
$var wire 32 &" dmem_addr [31:0] $end
$var wire 1 '" cand1_valid $end
$var wire 32 (" cand1_pc [31:0] $end
$var wire 32 )" cand1_instr [31:0] $end
$var wire 1 *" cand0_valid $end
$var wire 32 +" cand0_pc [31:0] $end
$var wire 32 ," cand0_instr [31:0] $end
$var wire 1 -" branch_valid_id $end
$var wire 32 ." branch_target [31:0] $end
$var wire 32 /" branch_offset_id [31:0] $end
$var wire 1 0 branch_event_valid $end
$var wire 1 0" auto_slot_use $end
$var wire 32 1" auto_slot_pc [31:0] $end
$var wire 32 2" auto_slot_instr [31:0] $end
$var parameter 2 3" BR_NONE $end
$var parameter 2 4" SLOT_MODE_AUTO $end
$var parameter 2 5" SLOT_MODE_MANUAL $end
$var parameter 2 6" SLOT_MODE_NOP $end
$var reg 32 7" ex_mem_alu_result [31:0] $end
$var reg 5 8" ex_mem_dest_reg [4:0] $end
$var reg 1 9" ex_mem_mem_read $end
$var reg 1 :" ex_mem_mem_to_reg $end
$var reg 1 ;" ex_mem_mem_write $end
$var reg 1 <" ex_mem_reg_write $end
$var reg 32 =" ex_mem_rt_forward_value [31:0] $end
$var reg 4 >" id_ex_alu_op [3:0] $end
$var reg 1 ?" id_ex_alu_src_immediate $end
$var reg 2 @" id_ex_branch_type [1:0] $end
$var reg 32 A" id_ex_imm_ext [31:0] $end
$var reg 26 B" id_ex_jump_index [25:0] $end
$var reg 1 C" id_ex_mem_read $end
$var reg 1 D" id_ex_mem_to_reg $end
$var reg 1 E" id_ex_mem_write $end
$var reg 32 F" id_ex_pc [31:0] $end
$var reg 32 G" id_ex_pc_plus4 [31:0] $end
$var reg 5 H" id_ex_rd_addr [4:0] $end
$var reg 1 I" id_ex_reg_dst_rd $end
$var reg 1 J" id_ex_reg_write $end
$var reg 5 K" id_ex_rs_addr [4:0] $end
$var reg 32 L" id_ex_rs_val [31:0] $end
$var reg 5 M" id_ex_rt_addr [4:0] $end
$var reg 32 N" id_ex_rt_val [31:0] $end
$var reg 32 O" id_ex_slot_auto_instr [31:0] $end
$var reg 32 P" id_ex_slot_auto_pc [31:0] $end
$var reg 32 Q" id_ex_slot_manual_instr [31:0] $end
$var reg 1 R" id_ex_slot_manual_is_nop $end
$var reg 32 S" id_ex_slot_manual_pc [31:0] $end
$var reg 2 T" id_ex_slot_mode [1:0] $end
$var reg 32 U" mem_wb_alu_result [31:0] $end
$var reg 32 V" mem_wb_data [31:0] $end
$var reg 5 W" mem_wb_dest_reg [4:0] $end
$var reg 1 X" mem_wb_mem_to_reg $end
$var reg 1 Y" mem_wb_reg_write $end
$var reg 32 Z" slot_auto_instr_ex [31:0] $end
$var reg 32 [" slot_auto_pc_ex [31:0] $end
$var reg 1 \" slot_cycle_pending $end
$var reg 32 ]" slot_manual_instr_ex [31:0] $end
$var reg 1 ^" slot_manual_is_nop_ex $end
$var reg 32 _" slot_manual_pc_ex [31:0] $end
$var reg 2 `" slot_mode_ex [1:0] $end
$var reg 32 a" slot_nominal_pc_ex [31:0] $end
$var reg 32 b" stat_branch_count [31:0] $end
$var reg 32 c" stat_cycle_count [31:0] $end
$var reg 32 d" stat_slot_auto_count [31:0] $end
$var reg 32 e" stat_slot_manual_count [31:0] $end
$var reg 32 f" stat_slot_nop_count [31:0] $end
$scope module u_ex_stage $end
$var wire 4 g" alu_op [3:0] $end
$var wire 1 ?" alu_src_immediate $end
$var wire 2 h" branch_type [1:0] $end
$var wire 1 ! clk $end
$var wire 32 i" id_pc_plus4 [31:0] $end
$var wire 32 j" imm_ext [31:0] $end
$var wire 26 k" jump_index [25:0] $end
$var wire 5 l" rd_addr [4:0] $end
$var wire 1 I" reg_dst_rd $end
$var wire 1 " reset $end
$var wire 5 m" rs_addr [4:0] $end
$var wire 32 n" rs_val [31:0] $end
$var wire 5 o" rt_addr [4:0] $end
$var wire 32 p" rt_forward_value [31:0] $end
$var wire 32 q" rt_val [31:0] $end
$var wire 5 r" dest_reg_out [4:0] $end
$var wire 32 s" branch_target [31:0] $end
$var wire 1 #" branch_taken $end
$var wire 32 t" branch_offset [31:0] $end
$var wire 32 u" alu_result [31:0] $end
$var wire 32 v" alu_operand_b [31:0] $end
$scope module u_alu $end
$var wire 4 w" alu_op [3:0] $end
$var wire 32 x" op_a [31:0] $end
$var wire 32 y" op_b [31:0] $end
$var wire 1 z" zero $end
$var parameter 4 {" ALU_ADD $end
$var parameter 4 |" ALU_AND $end
$var parameter 4 }" ALU_OR $end
$var parameter 4 ~" ALU_PASS $end
$var parameter 4 !# ALU_SUB $end
$var reg 32 "# result [31:0] $end
$upscope $end
$scope module u_branch_unit $end
$var wire 1 ## beq_taken $end
$var wire 1 $# bne_taken $end
$var wire 32 %# branch_offset [31:0] $end
$var wire 1 #" branch_taken $end
$var wire 2 &# branch_type [1:0] $end
$var wire 26 '# jump_index [25:0] $end
$var wire 32 (# pc_plus4_ex [31:0] $end
$var wire 32 )# rs_val [31:0] $end
$var wire 32 *# rt_val [31:0] $end
$var wire 1 +# j_taken $end
$var parameter 2 ,# BR_BEQ $end
$var parameter 2 -# BR_BNE $end
$var parameter 2 .# BR_J $end
$var parameter 2 /# BR_NONE $end
$var reg 32 0# branch_target [31:0] $end
$upscope $end
$upscope $end
$scope module u_hazard_unit $end
$var wire 1 C" ex_mem_read $end
$var wire 5 1# ex_rt [4:0] $end
$var wire 1 I flush_id_ex $end
$var wire 1 J flush_if_id $end
$var wire 1 2# load_use_hazard $end
$var wire 1 { stall_id $end
$var wire 1 z stall_if $end
$var wire 5 3# id_rt [4:0] $end
$var wire 5 4# id_rs [4:0] $end
$upscope $end
$scope module u_id_stage $end
$var wire 32 5# if_instr [31:0] $end
$var wire 32 6# if_pc_plus4 [31:0] $end
$var wire 32 7# zero_ext [31:0] $end
$var wire 32 8# sign_ext [31:0] $end
$var wire 5 9# rt_addr [4:0] $end
$var wire 5 :# rs_addr [4:0] $end
$var wire 5 ;# rd_addr [4:0] $end
$var wire 6 <# opcode [5:0] $end
$var wire 16 =# imm [15:0] $end
$var wire 1 ># id_is_branch_or_jump $end
$var wire 6 ?# funct [5:0] $end
$var parameter 2 @# BR_BEQ $end
$var parameter 2 A# BR_BNE $end
$var parameter 2 B# BR_J $end
$var parameter 2 C# BR_NONE $end
$var reg 4 D# alu_op [3:0] $end
$var reg 1 x alu_src_immediate $end
$var reg 2 E# branch_type [1:0] $end
$var reg 32 F# imm_ext [31:0] $end
$var reg 26 G# jump_index [25:0] $end
$var reg 1 s mem_read $end
$var reg 1 r mem_to_reg $end
$var reg 1 q mem_write $end
$var reg 1 m reg_dst_rd $end
$var reg 1 l reg_write $end
$upscope $end
$scope module u_if_stage $end
$var wire 1 E branch_redirect $end
$var wire 32 H# branch_target [31:0] $end
$var wire 32 I# cand1_instr [31:0] $end
$var wire 1 '" cand1_valid $end
$var wire 1 ! clk $end
$var wire 1 K flush $end
$var wire 32 J# imem_data [31:0] $end
$var wire 1 N kill_cand1 $end
$var wire 1 " reset $end
$var wire 1 L stall $end
$var wire 32 K# cand1_pc [31:0] $end
$var wire 1 *" cand0_valid $end
$var wire 32 L# cand0_pc [31:0] $end
$var wire 32 M# cand0_instr [31:0] $end
$var reg 32 N# fetch_pc [31:0] $end
$var reg 32 O# fetch_pc_n [31:0] $end
$var reg 32 P# if_instr [31:0] $end
$var reg 32 Q# if_instr_n [31:0] $end
$var reg 32 R# if_pc [31:0] $end
$var reg 32 S# if_pc_n [31:0] $end
$var reg 32 T# if_pc_plus4 [31:0] $end
$var reg 32 U# if_pc_plus4_n [31:0] $end
$var reg 32 V# imem_addr [31:0] $end
$var reg 32 W# slot0_instr [31:0] $end
$var reg 32 X# slot0_instr_n [31:0] $end
$var reg 32 Y# slot0_pc [31:0] $end
$var reg 32 Z# slot0_pc_n [31:0] $end
$var reg 1 *" slot0_valid $end
$var reg 1 [# slot0_valid_n $end
$var reg 32 \# slot1_instr [31:0] $end
$var reg 32 ]# slot1_instr_n [31:0] $end
$var reg 32 ^# slot1_pc [31:0] $end
$var reg 32 _# slot1_pc_n [31:0] $end
$var reg 1 `# slot1_valid $end
$var reg 1 a# slot1_valid_n $end
$upscope $end
$scope module u_mem_stage $end
$var wire 32 b# alu_result [31:0] $end
$var wire 32 c# dmem_addr [31:0] $end
$var wire 32 d# dmem_rdata [31:0] $end
$var wire 32 e# dmem_wdata [31:0] $end
$var wire 1 , dmem_we $end
$var wire 32 f# mem_data_out [31:0] $end
$var wire 1 9" mem_read $end
$var wire 1 ;" mem_write $end
$var wire 32 g# rt_forward_value [31:0] $end
$upscope $end
$scope module u_reg_file $end
$var wire 1 ! clk $end
$var wire 1 " reset $end
$var wire 5 h# rs_addr [4:0] $end
$var wire 5 i# rt_addr [4:0] $end
$var wire 32 j# rt_data [31:0] $end
$var wire 32 k# rs_data [31:0] $end
$var wire 1 U rd_we $end
$var wire 32 l# rd_data [31:0] $end
$var wire 5 m# rd_addr [4:0] $end
$var integer 32 n# i [31:0] $end
$upscope $end
$scope module u_slot_scheduler $end
$var wire 1 D branch_is_backward $end
$var wire 32 o# branch_pc [31:0] $end
$var wire 5 p# branch_rs [4:0] $end
$var wire 5 q# branch_rt [4:0] $end
$var wire 1 -" branch_valid $end
$var wire 1 r# branch_window_ok $end
$var wire 32 s# cand0_instr [31:0] $end
$var wire 32 t# cand0_pc [31:0] $end
$var wire 1 *" cand0_valid $end
$var wire 32 u# cand1_instr [31:0] $end
$var wire 32 v# cand1_pc [31:0] $end
$var wire 1 '" cand1_valid $end
$var reg 32 w# auto_slot_instr [31:0] $end
$var reg 32 x# auto_slot_pc [31:0] $end
$var reg 1 0" auto_slot_use $end
$var reg 1 | force_nop_slot $end
$var reg 1 ] kill_cand1 $end
$var reg 1 d manual_slot_is_nop $end
$var reg 1 c manual_slot_ok $end
$var reg 1 X wait_for_more_candidates $end
$scope function get_dest_reg $end
$upscope $end
$scope function get_funct $end
$upscope $end
$scope function get_opcode $end
$upscope $end
$scope function get_rd $end
$upscope $end
$scope function get_rs $end
$upscope $end
$scope function get_rt $end
$upscope $end
$scope function is_control $end
$upscope $end
$scope function is_memory_op $end
$upscope $end
$scope function safe_candidate $end
$upscope $end
$scope function writes_register $end
$upscope $end
$upscope $end
$scope module u_wb_stage $end
$var wire 32 y# alu_result [31:0] $end
$var wire 5 z# dest_reg [4:0] $end
$var wire 32 {# mem_data [31:0] $end
$var wire 1 X" mem_to_reg $end
$var wire 1 Y" reg_write $end
$var wire 5 |# wb_addr [4:0] $end
$var wire 1 U wb_we $end
$var wire 32 }# wb_data [31:0] $end
$upscope $end
$upscope $end
$upscope $end
$upscope $end
$enddefinitions $end
$comment Show the parameter values. $end
$dumpall
b0 C#
b11 B#
b10 A#
b1 @#
b0 /#
b11 .#
b10 -#
b1 ,#
b1 !#
b100 ~"
b11 }"
b10 |"
b0 {"
b10 6"
b0 5"
b1 4"
b0 3"
b100000000 >
b100000000 5
$end
#0
$dumpvars
bx }#
bx |#
bx {#
bx z#
bx y#
bx x#
bx w#
bx v#
bx u#
bx t#
bx s#
xr#
bx q#
bx p#
bx o#
bx n#
bx m#
bx l#
bx k#
bx j#
bx i#
bx h#
bx g#
bx f#
bx e#
bx d#
bx c#
bx b#
xa#
x`#
bx _#
bx ^#
bx ]#
bx \#
x[#
bx Z#
bx Y#
bx X#
bx W#
bx V#
bx U#
bx T#
bx S#
bx R#
bx Q#
bx P#
bx O#
bx N#
bx M#
bx L#
bx K#
bx J#
bx I#
bx H#
bx G#
bx F#
bx E#
bx D#
bx ?#
x>#
bx =#
bx <#
bx ;#
bx :#
bx 9#
bx 8#
b0xxxxxxxxxxxxxxxx 7#
bx 6#
bx 5#
bx 4#
bx 3#
x2#
bx 1#
bx 0#
x+#
bx *#
bx )#
bx (#
bx '#
bx &#
bx00 %#
x$#
x##
bx "#
xz"
bx y"
bx x"
bx w"
bx v"
bx u"
bx00 t"
bx s"
bx r"
bx q"
bx p"
bx o"
bx n"
bx m"
bx l"
bx k"
bx j"
bx i"
bx h"
bx g"
bx f"
bx e"
bx d"
bx c"
bx b"
bx a"
bx `"
bx _"
x^"
bx ]"
x\"
bx ["
bx Z"
xY"
xX"
bx W"
bx V"
bx U"
bx T"
bx S"
xR"
bx Q"
bx P"
bx O"
bx N"
bx M"
bx L"
bx K"
xJ"
xI"
bx H"
bx G"
bx F"
xE"
xD"
xC"
bx B"
bx A"
bx @"
x?"
bx >"
bx ="
x<"
x;"
x:"
x9"
bx 8"
bx 7"
bx 2"
bx 1"
x0"
bx00 /"
bx ."
x-"
bx ,"
bx +"
x*"
bx )"
bx ("
x'"
bx &"
bx %"
bx $"
x#"
bx ""
bx !"
bx ~
bx }
x|
x{
xz
bx y
xx
bx w
bx v
bx u
bx t
xs
xr
xq
bx p
bx o
bx n
xm
xl
bx k
bx j
bx i
bx h
bx g
bx f
bx e
xd
xc
bx b
bx a
bx `
bx _
bx ^
x]
bx \
bx [
bx Z
bx Y
xX
bx W
bx V
xU
xT
xS
xR
xQ
xP
xO
xN
bx M
xL
xK
0J
0I
xH
xG
bx F
xE
xD
xC
bx B
b0 A
b100000 @
bx ?
bx =
bx <
bx ;
bx :
bx 9
bx 8
bx 7
bx 6
bx 4
bx 3
bx 2
x1
x0
bx /
bx .
bx -
x,
bx +
bx *
x)
x(
bx '
bx &
bx %
bx $
bx #
1"
0!
$end
#5000
0C
b0 `
1r#
1z"
b0 $"
b0 u"
b0 "#
b0 /"
b0 Y
0D
b0 _
b0 k#
b0 ^
b0 j#
01
0E
0#"
b0 v"
b0 y"
0L
b0 t
b0 G#
b0 v
b0 F#
0>#
0-"
b0 w
b0 E#
0r
0q
0s
0l
1m
0x
b0 y
b0 D#
b0 <#
b0 ?#
b0 k
b0 4#
b0 :#
b0 h#
b0 p#
b0 j
b0 3#
b0 9#
b0 i#
b0 q#
b0 n
b0 ;#
b0 8#
b0 7#
b0 =#
b0 b
0N
0Q
0T
b100000000000010000000000000100 *
b100000000000010000000000000100 <
b100000000000010000000000000100 M
b100000000000010000000000000100 J#
b0 !"
b0 p"
b0 }
b0 q"
b0 *#
b0 ~
b0 n"
b0 x"
b0 )#
0K
b0 u
b0 5#
b0 o
b0 6#
b0 p
b0 o#
b0 e
0]
b0 1"
b0 x#
b0 2"
b0 w#
0X
0|
00"
0d
0c
b0 +
b0 =
b0 f
b0 V#
b0 Q#
b0 U#
b0 S#
b100 O#
0a#
b0 _#
b0 ]#
1[#
b0 Z#
b100000000000010000000000000100 X#
0H
0P
0G
0O
0##
0$#
0z
0{
02#
b0 ""
b0 r"
b0 t"
b0 %#
b100 ."
b100 s"
b100 0#
b100 H#
0S
b0 \
b100 [
b0 Z
0R
0(
b0 V
b0 l#
b0 }#
b0 a
b0 f#
b0 .
b0 6
b0 F
b0 d#
b0 i
b0 P#
b0 g
b0 T#
b0 h
b0 R#
0'"
0`#
b0 ("
b0 K#
b0 ^#
b0 v#
b0 )"
b0 I#
b0 u#
b0 \#
0*"
b0 +"
b0 L#
b0 Y#
b0 t#
b0 ,"
b0 M#
b0 W#
b0 s#
b0 N#
b0 S"
b0 Q"
0R"
b0 P"
b0 O"
b0 T"
b0 H"
b0 l"
b0 M"
b0 o"
b0 1#
b0 K"
b0 m"
00
0+#
b0 @"
b0 h"
b0 &#
0D"
0E"
0C"
0J"
0I"
0?"
b0 >"
b0 g"
b0 w"
b0 B"
b0 k"
b0 '#
b0 A"
b0 j"
b0 N"
b0 L"
b0 G"
b0 i"
b0 (#
b0 2
b0 B
b0 F"
0\"
0^"
b0 _"
b0 ]"
b0 a"
b0 ["
b0 Z"
0)
b0 `"
0:"
0,
0;"
09"
0<"
b0 8"
b0 -
b0 3
b0 %"
b0 e#
b0 ="
b0 g#
b0 /
b0 4
b0 &"
b0 c#
b0 7"
b0 b#
0X"
0U
0Y"
b0 W
b0 m#
b0 |#
b0 W"
b0 z#
b0 V"
b0 {#
b0 U"
b0 y#
b0 #
b0 f"
b0 %
b0 d"
b0 $
b0 e"
b0 '
b0 b"
b0 &
b0 c"
b100000000 7
b100000 n#
1!
#10000
0!
#15000
b100000 n#
b100000000 7
1!
#20000
0!
#25000
b100000000 7
b100000 n#
1!
#30000
0!
#35000
b100000 n#
b100000000 7
1!
#40000
0!
#45000
0"
b100000000 7
b100000 n#
1!
#50000
0!
#55000
b100000000000100000000000000011 *
b100000000000100000000000000011 <
b100000000000100000000000000011 M
b100000000000100000000000000011 J#
b100000000000010000000000000100 e
b100 +
b100 =
b100 f
b100 V#
b1000 O#
b100 Z#
1[#
b100000000000100000000000000011 X#
b100 U#
b100000000000010000000000000100 Q#
b1 &
b1 c"
1I"
1*"
b100000000000010000000000000100 ,"
b100000000000010000000000000100 M#
b100000000000010000000000000100 W#
b100000000000010000000000000100 s#
b100 N#
1!
#60000
0!
#65000
b10000 /"
1l
1x
b10000000000000100 t
b10000000000000100 G#
b100 v
b100 F#
0m
b1000 <#
b100 ?#
b1 j
b1 3#
b1 9#
b1 i#
b1 q#
b100 8#
b100 7#
b100 =#
b100000000000110000000000000000 *
b100000000000110000000000000000 <
b100000000000110000000000000000 M
b100000000000110000000000000000 J#
b100000000000010000000000000100 u
b100000000000010000000000000100 5#
b10100 `
b100 o
b100 6#
b100 b
b100000000000100000000000000011 e
b1000 +
b1000 =
b1000 f
b1000 V#
b1100 O#
1[#
b1000 Z#
b100000000000110000000000000000 X#
b1000 U#
b100 S#
b100000000000100000000000000011 Q#
b100000000000010000000000000100 i
b100000000000010000000000000100 P#
b100 g
b100 T#
b100 +"
b100 L#
b100 Y#
b100 t#
b100000000000100000000000000011 ,"
b100000000000100000000000000011 M#
b100000000000100000000000000011 W#
b100000000000100000000000000011 s#
b1000 N#
b100000000000010000000000000100 Q"
b10 &
b10 c"
1!
#70000
0!
#75000
b1100 /"
0z"
b100 $"
b100 u"
b100 "#
b100000000000000011 t
b100000000000000011 G#
b11 v
b11 F#
1l
1x
b11 ?#
b10 j
b10 3#
b10 9#
b10 i#
b10 q#
b11 8#
b11 7#
b11 =#
b11000100001100000100000 *
b11000100001100000100000 <
b11000100001100000100000 M
b11000100001100000100000 J#
b1 ""
b1 r"
b100 v"
b100 y"
b10000 t"
b10000 %#
b1000 ."
b1000 s"
b1000 0#
b1000 H#
b100000000000100000000000000011 u
b100000000000100000000000000011 5#
b10100 `
b1000 o
b1000 6#
b100 p
b100 o#
b1000 b
b100000000000110000000000000000 e
b1100 +
b1100 =
b1100 f
b1100 V#
b10000 O#
1[#
b1100 Z#
b11000100001100000100000 X#
b1100 U#
b1000 S#
b100000000000110000000000000000 Q#
b11 &
b11 c"
b100 S"
b100000000000100000000000000011 Q"
b1 M"
b1 o"
b1 1#
1J"
0I"
1?"
b10000000000000100 B"
b10000000000000100 k"
b10000000000000100 '#
b100 A"
b100 j"
b100 G"
b100 i"
b100 (#
b100000000000100000000000000011 i
b100000000000100000000000000011 P#
b1000 g
b1000 T#
b100 h
b100 R#
b1000 +"
b1000 L#
b1000 Y#
b1000 t#
b100000000000110000000000000000 ,"
b100000000000110000000000000000 M#
b100000000000110000000000000000 W#
b100000000000110000000000000000 s#
b1100 N#
1!
#80000
0!
#85000
b0 /"
b110000000000000000 t
b110000000000000000 G#
b0 v
b0 F#
1l
1x
b0 ?#
b11 j
b11 3#
b11 9#
b11 i#
b11 q#
b0 8#
b0 7#
b0 =#
b100000001000011111111111111111 *
b100000001000011111111111111111 <
b100000001000011111111111111111 M
b100000001000011111111111111111 J#
b11 $"
b11 u"
b11 "#
b100000000000110000000000000000 u
b100000000000110000000000000000 5#
b1100 `
b1100 o
b1100 6#
b1000 p
b1000 o#
b1100 b
b11000100001100000100000 e
b10000 +
b10000 =
b10000 f
b10000 V#
b10100 O#
1[#
b10000 Z#
b100000001000011111111111111111 X#
b10000 U#
b1100 S#
b11000100001100000100000 Q#
b10 ""
b10 r"
b11 v"
b11 y"
b1100 t"
b1100 %#
b1100 ."
b1100 s"
b1100 0#
b1100 H#
b100000000000110000000000000000 i
b100000000000110000000000000000 P#
b1100 g
b1100 T#
b1000 h
b1000 R#
b1100 +"
b1100 L#
b1100 Y#
b1100 t#
b11000100001100000100000 ,"
b11000100001100000100000 M#
b11000100001100000100000 W#
b11000100001100000100000 s#
b10000 N#
b1000 S"
b100000000000110000000000000000 Q"
b10 M"
b10 o"
b10 1#
b100000000000000011 B"
b100000000000000011 k"
b100000000000000011 '#
b11 A"
b11 j"
b1000 G"
b1000 i"
b1000 (#
b100 2
b100 B
b100 F"
1<"
b1 8"
b100 /
b100 4
b100 &"
b100 c#
b100 7"
b100 b#
b100 &
b100 c"
1!
#90000
0!
#95000
b110000010000000 /"
1z"
b0 $"
b0 u"
b0 "#
1m
b11000100001100000100000 t
b11000100001100000100000 G#
b1100000100000 v
b1100000100000 F#
1l
0x
b0 <#
b100000 ?#
b11 k
b11 4#
b11 :#
b11 h#
b11 p#
b10 j
b10 3#
b10 9#
b10 i#
b10 q#
b11 n
b11 ;#
b1100000100000 8#
b1100000100000 7#
b1100000100000 =#
b10100001000001111111111111101 *
b10100001000001111111111111101 <
b10100001000001111111111111101 M
b10100001000001111111111111101 J#
b100 V
b100 l#
b100 }#
b11 ""
b11 r"
b0 v"
b0 y"
b0 t"
b0 %#
b10000 ."
b10000 s"
b10000 0#
b10000 H#
b11000100001100000100000 u
b11000100001100000100000 5#
b110000010010000 `
b10000 o
b10000 6#
b1100 p
b1100 o#
b10000 b
b100000001000011111111111111111 e
b10100 +
b10100 =
b10100 f
b10100 V#
b11000 O#
1[#
b10100 Z#
b10100001000001111111111111101 X#
b10100 U#
b10000 S#
b100000001000011111111111111111 Q#
b101 &
b101 c"
1U
1Y"
b1 W
b1 m#
b1 |#
b1 W"
b1 z#
b100 U"
b100 y#
b10 8"
b11 /
b11 4
b11 &"
b11 c#
b11 7"
b11 b#
b1100 S"
b11000100001100000100000 Q"
b11 M"
b11 o"
b11 1#
b110000000000000000 B"
b110000000000000000 k"
b110000000000000000 '#
b0 A"
b0 j"
b1100 G"
b1100 i"
b1100 (#
b1000 2
b1000 B
b1000 F"
b11000100001100000100000 i
b11000100001100000100000 P#
b10000 g
b10000 T#
b1100 h
b1100 R#
b10000 +"
b10000 L#
b10000 Y#
b10000 t#
b100000001000011111111111111111 ,"
b100000001000011111111111111111 M#
b100000001000011111111111111111 W#
b100000001000011111111111111111 s#
b10100 N#
1!
#100000
0!
#105000
0z"
b11 $"
b11 u"
b11 "#
b11 v"
b11 y"
b11111111111111111111111111111100 /"
b100 _
b100 k#
b100 ^
b100 j#
b11 !"
b11 p"
b11 }
b11 q"
b11 *#
1x
b1000011111111111111111 t
b1000011111111111111111 G#
b11111111111111111111111111111111 v
b11111111111111111111111111111111 F#
1l
0m
b1000 <#
b111111 ?#
b1 k
b1 4#
b1 :#
b1 h#
b1 p#
b1 j
b1 3#
b1 9#
b1 i#
b1 q#
b11111 n
b11111 ;#
b11111111111111111111111111111111 8#
b1111111111111111 7#
b1111111111111111 =#
b100000100001000000000000000001 *
b100000100001000000000000000001 <
b100000100001000000000000000001 M
b100000100001000000000000000001 J#
b100000001000011111111111111111 u
b100000001000011111111111111111 5#
b10000 `
b10100 o
b10100 6#
b10000 p
b10000 o#
b10100 b
b10100001000001111111111111101 e
b11000 +
b11000 =
b11000 f
b11000 V#
b11100 O#
1[#
b11000 Z#
b100000100001000000000000000001 X#
b11000 U#
b10100 S#
b10100001000001111111111111101 Q#
1P
1G
b110000010000000 t"
b110000010000000 %#
b10100 ."
b10100 s"
b10100 0#
b10100 H#
b11 V
b11 l#
b11 }#
b100000001000011111111111111111 i
b100000001000011111111111111111 P#
b10100 g
b10100 T#
b10000 h
b10000 R#
b10100 +"
b10100 L#
b10100 Y#
b10100 t#
b10100001000001111111111111101 ,"
b10100001000001111111111111101 M#
b10100001000001111111111111101 W#
b10100001000001111111111111101 s#
b11000 N#
b10000 S"
b100000001000011111111111111111 Q"
b11 H"
b11 l"
b10 M"
b10 o"
b10 1#
b11 K"
b11 m"
1I"
0?"
b11000100001100000100000 B"
b11000100001100000100000 k"
b11000100001100000100000 '#
b1100000100000 A"
b1100000100000 j"
b10000 G"
b10000 i"
b10000 (#
b1100 2
b1100 B
b1100 F"
b11 8"
b0 /
b0 4
b0 &"
b0 c#
b0 7"
b0 b#
b10 W
b10 m#
b10 |#
b10 W"
b10 z#
b11 U"
b11 y#
b110 &
b110 c"
1!
#110000
0!
